914814 456790
955366 890189
271080 380288
623176 576366
92435 763415
750472 194245
133929 435276
450748 616406
645524 473257
718915 188672
66220 856071
614680 330320
242433 441791
663472 756221
410384 832674
804984 762786
473978 673020
663651 942296
332867 265353
562263 809860
539256 963631
140987 972915
973505 471883
679180 372084
209669 914174
997325 556231
445171 409644
648063 397477
829519 589917
425638 706340
306076 719442
987759 820954
296120 837143
910146 682047
135371 203742
365588 455104
24860 36493
52253 160970
334949 64800
245662 531182
562268 528327
186601 992685
431391 470032
272937 568876
715429 822800
589738 736140
309301 843367
821796 653873
549810 157953
461579 72814
847540 763265
271745 710210
55985 575932
896390 872509
252696 467084
949867 365160
633197 16634
208219 466066
684151 486510
631858 501718
900673 562963
864676 605812
377509 221497
843330 412513
243800 578938
706363 404789
932578 510833
263 985640
960153 666646
378883 68961
376658 446937
381820 520208
679633 266328
740207 980796
222728 18656
743903 264479
506132 155452
574213 560244
94146 719297
24498 764840
171927 645559
561482 426984
333464 100046
473803 931599
578288 743080
576245 404831
308389 374451
568209 399092
44026 229264
15430 177218
464981 282668
699218 721589
176662 372737
780343 903735
277188 676742
302829 305140
586325 540097
75785 314532
377666 704578
393393 902886
931776 860269
392299 769563
178630 213209
55494 397875
244127 802588
921146 117803
538385 877809
264317 994260
908446 266644
129464 338240
599013 535955
938642 981423
986638 984203
379236 579973
809503 7417
632078 226154
170598 605659
485151 391223
489289 379493
989013 9931
371847 410163
147972 92032
439524 434879
84277 752352
234834 571894
928525 466924
162967 243982
783994 558700
441109 194999
545934 605336
890432 482137
905922 823901
523397 75905
340199 205477
967522 842034
383331 253794
832055 738359
619700 894274
876378 706392
759830 585950
203995 830356
404826 176283
53341 348275
496526 58719
642393 177364
214776 115552
292959 575120
360399 923076
677404 768651
294946 861894
322449 420021
322252 615116
791876 565105
943010 525537
849988 202721
529228 596953
766688 310413
252567 528076
641228 495194
100472 298180
910427 358916
306613 439407
577214 71778
820977 737189
481725 433443
723093 439614
142797 367117
561532 826522
763787 144519
730707 4150
777906 90738
675113 453950
910376 328860
265248 340433
975961 677918
469543 648818
865165 521940
148657 87438
938040 32178
457833 633502
763031 204812
274070 302464
538187 16264
956233 434634
175022 853821
101651 936268
748540 322181
167995 239967
63204 625670
925314 160891
791636 428351
964742 764493
964860 454228
295795 584790
799083 241254
300592 903870
838261 380561
952256 853099
662108 217012
957112 539332
679004 950035
152556 934817
333389 587981
198634 158471
430600 943757
214368 576766
882514 37568
761583 365684
543313 510426
105420 440012
279845 579123
852507 88332
150185 418614
971645 835905
975714 317971
820756 404528
68188 253779
443714 335610
420046 651029
462837 800285
416835 755039
540683 412927
733120 250965
35727 99409
219485 425533
486479 845267
369374 486349
12331 410116
954268 696015
917273 442017
271561 84363
436895 894204
584194 486441
198961 518016
134089 533138
144318 438053
881754 414397
912212 80048
986417 226164
255062 891837
378499 447999
175179 840492
695780 608898
127966 556212
35346 118056
937518 781975
899140 16104
625265 90150
121646 877448
762601 172949
