10243 71485
48147 67322
5950 9304
22260 37007
3671 60917
52244 72721
17269 59662
58584 77533
18643 23902
65935 91231
27830 40859
5663 65030
48056 77858
34355 81534
29880 43858
23964 91537
48363 56058
8930 76294
11720 33570
52827 79143
38023 50541
10569 21427
184 22931
8696 87209
30211 88226
30104 66862
12654 94629
14523 60936
28407 92855
24883 48335
48592 80025
1500 60796
23753 50989
24647 59268
43440 87146
55216 70038
76751 85617
6425 28897
42906 53057
18966 66619
68365 87931
9275 18661
65717 81006
39854 47273
35783 46327
55521 66631
9159 30846
24494 85076
6617 50391
33889 66227
40153 51240
8167 94227
4375 99632
23567 79593
11990 13117
34667 77965
29963 44232
55864 67002
32733 91011
27966 34999
37785 74294
13933 30000
25 86404
19360 24852
76151 78278
29849 42746
31258 38578
66325 83025
44185 48127
846 94096
7522 75697
16593 68392
4462 39034
62677 98351
51374 72383
1573 86445
56647 61715
13130 26373
1985 12206
15557 46035
58240 91999
17930 90213
6336 89000
38731 87604
52634 88456
12462 83597
5385 7361
60550 66807
28275 84411
67728 74076
17899 70250
68018 83876
66198 72491
43179 86124
8362 88287
39362 55511
74341 74851
6495 44911
15092 79527
10097 68180
16565 90914
74176 84181
9184 92820
3660 62967
18076 67274
12238 84907
24190 76242
12665 13262
15427 17472
36564 79729
11483 29914
35786 85172
71997 92101
11508 64517
1393 52595
40304 94780
18901 96634
9191 12512
18570 69011
22164 87628
1924 33716
16230 57285
35918 68921
26569 91304
80101 89501
34192 79399
81085 85647
30431 39766
13740 30313
22127 34230
40255 56263
29162 58462
21896 42902
75093 92425
58278 59106
39012 67081
68034 74981
84342 93657
16274 98210
77459 83093
3075 44998
10455 37998
1432 15513
74378 88675
22770 85869
11013 80105
17386 38063
78742 89708
60471 73325
65737 99480
26428 30327
86896 94302
12835 32127
73981 74056
51844 69050
3705 40049
11108 78417
13486 21496
56209 66272
43086 99097
18879 41549
56062 94247
12089 37501
49316 97687
50265 63797
18302 21059
72959 76912
49092 78234
26285 69169
25611 89378
63375 88508
64855 72411
65615 79783
38538 98569
535 60102
57621 67488
36065 36767
4896 19129
23261 94494
57186 85177
38838 72381
33610 47335
12239 93029
5906 34271
11518 58238
47178 83989
18117 71442
71736 99859
15630 19265
30755 44214
24373 69627
9437 77589
3884 98601
36344 70445
52696 78930
20991 98253
4205 88422
42172 80584
5782 45956
84103 92241
78980 83210
43573 53499
42372 51946
74888 82824
6087 73141
20927 59434
61165 69188
5685 59938
8037 9841
53642 64587
50138 83442
35350 63617
28058 72719
47798 62912
40761 67687
59212 62323
46482 76919
15717 22435
32710 89361
61264 75381
26420 66388
31561 35039
11994 95780
69419 87903
19556 29347
77311 88995
1531 95839
27483 44811
67673 88528
2456 21443
501 58759
76427 99445
35460 64151
74693 81284
22620 78693
28169 49123
44561 64308
8238 40550
37943 76856
61481 65906
3224 54133
1951 85314
4066 24594
14145 75263
63256 66865
8534 98410
14186 88872
5625 50656
1477 78220
5213 34576
